{

  "canvasWidth" : 18,   "canvasHeight" : 18,

  "dpi" : 10,

  "yawcamimage" : "960x720",

  "topLeftX":      114, "topLeftY":      52,
  "topRightX":     648, "topRightY":     48,
  "bottomLeftX":   120, "bottomLeftY":  589,
  "bottomRightX":  653, "bottomRightY": 575,

  "colorTolerance": 1,
  
  "maxPaintWells" : 8,

  "useLivePalette" : false,

  "paintWells" : [
  	[865, 653],
  	[864, 590],
  	[863, 526],
  	[861, 472],
  	[860, 412],
  	[859, 356],
  	[857, 298],
  	[855, 240],
  	[854, 181],
  	[853, 118]]

}