[
{"well":1, "wellx": 3870, "welly": 1640 },
{"well":2, "wellx": 3868, "welly": 2115 },
{"well":3, "wellx": 3867, "welly": 2590 },
{"well":4, "wellx": 3866, "welly": 3065 },
{"well":5, "wellx": 3865, "welly": 3540 },
{"well":6, "wellx": 3864, "welly": 4015 },
{"well":7, "wellx": 3862, "welly": 4490 },
{"well":8, "wellx": 3861, "welly": 4965 }
]
