com\cloudpainter\autopaint\PaintMap.class
com\cloudpainter\utils\Base64$OutputStream.class
com\cloudpainter\autopaint\PaintMap$PaintSorting.class
com\cloudpainter\autopaint\PaintMapStroke.class
com\cloudpainter\painting\CanvasSetting.class
com\cloudpainter\autopaint\RealWorldStroke.class
com\cloudpainter\painting\PaintPalette.class
com\cloudpainter\painting\StaticPaintAlgorithms.class
com\cloudpainter\painting\Paint.class
com\cloudpainter\autopaint\PaintPattern$DirectionToSearchForNextStrokeStartCol.class
com\cloudpainter\autopaint\PaintMapDirection.class
com\cloudpainter\autopaint\PaintPattern.class
ProcessPaintmapIntoStrokes.class
com\cloudpainter\utils\HorizontalLine.class
com\cloudpainter\painting\CanvasPoint.class
com\cloudpainter\painting\BrushStroke.class
com\cloudpainter\autopaint\PaintPattern$DirectionToSearchForNextStrokeStartRow.class
FtoCService.class
com\cloudpainter\utils\Base64.class
com\cloudpainter\painting\PaintApplicationSettings.class
com\cloudpainter\autopaint\PaintMapColor.class
com\cloudpainter\utils\TrapezoidImageTransformer.class
com\cloudpainter\autopaint\DownPaintPattern.class
com\cloudpainter\utils\ElasticsearchUtility.class
com\cloudpainter\utils\ColorUtils.class
com\cloudpainter\autopaint\AutoPaint.class
CtoFService.class
com\cloudpainter\autopaint\PaletteMap.class
com\cloudpainter\utils\Base64$InputStream.class
com\cloudpainter\painting\Painting.class
com\cloudpainter\processpaintmap\PaintmapProcessor.class
com\cloudpainter\autopaint\PaintPattern$FindNextStrokeStartPointStrategy.class
com\cloudpainter\autopaint\AutoPainterManager.class
com\cloudpainter\autopaint\PaintMap$ColorSorting.class
com\cloudpainter\utils\Base64$1.class
com\cloudpainter\painting\Brush.class
AutoPaint.class
