C:\development\workspace\CloudPainterRestServer\src\com\cloudpainter\painting\CanvasPoint.java
C:\development\workspace\CloudPainterRestServer\src\com\cloudpainter\autopaint\PaintPattern.java
C:\development\workspace\CloudPainterRestServer\src\com\cloudpainter\painting\Brush.java
C:\development\workspace\CloudPainterRestServer\src\com\cloudpainter\utils\HorizontalLine.java
C:\development\workspace\CloudPainterRestServer\src\com\cloudpainter\utils\ElasticsearchUtility.java
C:\development\workspace\CloudPainterRestServer\src\com\cloudpainter\autopaint\PaletteMap.java
C:\development\workspace\CloudPainterRestServer\src\CtoFService.java
C:\development\workspace\CloudPainterRestServer\src\com\cloudpainter\painting\PaintApplicationSettings.java
C:\development\workspace\CloudPainterRestServer\src\com\cloudpainter\painting\CanvasSetting.java
C:\development\workspace\CloudPainterRestServer\src\com\cloudpainter\autopaint\PaintMap.java
C:\development\workspace\CloudPainterRestServer\src\ProcessPaintmapIntoStrokes.java
C:\development\workspace\CloudPainterRestServer\src\FtoCService.java
C:\development\workspace\CloudPainterRestServer\src\com\cloudpainter\autopaint\PaintMapColor.java
C:\development\workspace\CloudPainterRestServer\src\com\cloudpainter\autopaint\AutoPainterManager.java
C:\development\workspace\CloudPainterRestServer\src\com\cloudpainter\utils\Base64.java
C:\development\workspace\CloudPainterRestServer\src\com\cloudpainter\autopaint\RealWorldStroke.java
C:\development\workspace\CloudPainterRestServer\src\com\cloudpainter\autopaint\AutoPaint.java
C:\development\workspace\CloudPainterRestServer\src\com\cloudpainter\autopaint\DownPaintPattern.java
C:\development\workspace\CloudPainterRestServer\src\com\cloudpainter\painting\Paint.java
C:\development\workspace\CloudPainterRestServer\src\com\cloudpainter\painting\Painting.java
C:\development\workspace\CloudPainterRestServer\src\com\cloudpainter\processpaintmap\PaintmapProcessor.java
C:\development\workspace\CloudPainterRestServer\src\com\cloudpainter\painting\StaticPaintAlgorithms.java
C:\development\workspace\CloudPainterRestServer\src\com\cloudpainter\autopaint\PaintMapDirection.java
C:\development\workspace\CloudPainterRestServer\src\com\cloudpainter\utils\ColorUtils.java
C:\development\workspace\CloudPainterRestServer\src\AutoPaint.java
C:\development\workspace\CloudPainterRestServer\src\com\cloudpainter\utils\TrapezoidImageTransformer.java
C:\development\workspace\CloudPainterRestServer\src\com\cloudpainter\painting\PaintPalette.java
C:\development\workspace\CloudPainterRestServer\src\com\cloudpainter\autopaint\PaintMapStroke.java
C:\development\workspace\CloudPainterRestServer\src\com\cloudpainter\painting\BrushStroke.java
