;(Scribbled version of C:\Users\Chris\AppData\Local\Temp\ink_ext_XXXXXX.svg9CIIJZ @ 3500.00)
;( reprap.py --tab="homing" --pen-up-height=10 --flat=0.15000000596046448 --start-delay=150 --stop-delay=150 --xy-feedrate=3500 --z-feedrate=150 --z-height=10 --finished-height=10 --register-pen=false --x-home=100 --y-home=0 --num-copies=1 --continuous=false --pause-on-layer-change=false C:\Users\Chris\AppData\Local\Temp\ink_ext_XXXXXX.svg9CIIJZ )
G21 ;(metric ftw)
G90 ;(absolute mode)

G28 Z ; home X and Y Axes

G28 X Y

G1 X150 F3500
G92 X0
; Set Zero of Center

;(Polyline consisting of 2 segments.)
G1 X-75.30 Y225.50 F3500.00
G4 P150 ;(wait 150ms)
G1 X-77.55 Y225.25 F3500.00
G1 X-79.64 Y224.53 F3500.00
G1 X-81.53 Y223.39 F3500.00
G1 X-83.17 Y221.89 F3500.00
G1 X-84.53 Y220.07 F3500.00
G1 X-85.56 Y217.98 F3500.00
G1 X-86.21 Y215.67 F3500.00
G1 X-86.43 Y213.19 F3500.00
G1 X-86.21 Y210.71 F3500.00
G1 X-85.56 Y208.40 F3500.00
G1 X-84.53 Y206.31 F3500.00
G1 X-83.17 Y204.49 F3500.00
G1 X-81.53 Y202.99 F3500.00
G1 X-79.64 Y201.85 F3500.00
G1 X-77.55 Y201.14 F3500.00
G1 X-75.30 Y200.89 F3500.00
G1 X-73.06 Y201.14 F3500.00
G1 X-70.97 Y201.85 F3500.00
G1 X-69.08 Y202.99 F3500.00
G1 X-67.43 Y204.49 F3500.00
G1 X-66.07 Y206.31 F3500.00
G1 X-65.05 Y208.40 F3500.00
G1 X-64.40 Y210.71 F3500.00
G1 X-64.17 Y213.19 F3500.00
G1 X-64.40 Y215.67 F3500.00
G1 X-65.05 Y217.98 F3500.00
G1 X-66.07 Y220.07 F3500.00
G1 X-67.43 Y221.89 F3500.00
G1 X-69.08 Y223.39 F3500.00
G1 X-70.97 Y224.53 F3500.00
G1 X-73.06 Y225.25 F3500.00
G1 X-75.30 Y225.50 F3500.00
G1 X-75.30 Y225.50 F3500.00
G1 Z37.00 F300 ;(pen up)
G4 P150 ;(wait 150ms)

G1 X-50 F3500
G92 X0
; Set Zero of Center




;(end of print job)

G28 X Y Z ; home X and Y Axes
