; generated by Christopher Davis - May 31, 2018



M107




G21 ; set units to millimeters
G90 ; use absolute coordinates
M82 ; use absolute distances for extrusion


T1 ;Rotate paintbrush, dispensing paint is T0

G92 E0
G1 E-50 F250
G92 E0

G1 E20 F250
G1 E5 F250
G1 E15 F250
G1 E1 F250
G1 E29 F500
G1 E25 F500
G1 E28 F500
G1 E15 F500
G1 E5 F500
G1 E3 F500
G1 E4 F500
G1 E2 F500
G1 E17 F500

M84     ; disable motors


