; generated by Christopher Davis - May 22, 2018



M107

G28 Z ; home X and Y Axes


G21 ; set units to millimeters
G90 ; use absolute coordinates
M82 ; use absolute distances for extrusion
G92 E0


G28 X Y F 1800

G1 Z1 F300
G1 F3600
G1 X50 Y100
G1 Y300
G1 X150
G1 Y100
G1 X50
G1 X150 Y300 F1800

G1 F300


M84     ; disable motors


