; generated by CloudPainter GCODE Generator - Version 2018.08.11
; code for dd_embellishment_004
; on robot com.cloudpainter.robots.PandoraVOne@15ca7889
; "paintwells":[ "#fefffe" ]


M107                ; ??? 
G21                 ; set units to millimeters
G90                 ; use absolute coordinates
M82                 ; use absolute distances for extrusion
G92 E0.0              ; ??? 
T0                  ;Rotate paintbrush T0, dispensing paint T1  



;strokeA1
M204 P1000 T1000    ; fullspeed
G1 F10000           ; set X Y speed
G1 X300.0 Y200.0    ; move X Y to default origin
G1 Z15.5            ; move X Y to default origin
G1 Z15.7            ; move X Y to default origin
G1 Z15.5            ; move X Y to default origin
M204 P10 T10    ; loweringspeed
G1 X290.0 Y195.0 Z15.0 E-1.0   ; move X Y to default origin
G1 X280.0 Y190.0 Z10.0 E-2.0   ; move X Y to default origin
M204 P1000 T1000    ; fullspeed
G1 Z0            ; move X Y to default origin
G1 X0 Y0 E0          ; move X Y to default origin

;G4 P10000            ; pause 10 sec


;strokeA2
M204 P1000 T1000    ; fullspeed
G1 F10000           ; set X Y speed
G1 X300.0 Y300.0    ; move X Y to default origin
G1 Z15.5            ; move X Y to default origin
G1 Z15.7            ; move X Y to default origin
G1 Z15.5            ; move X Y to default origin
M204 P10 T10    ; loweringspeed
G1 X290.0 Y290.0 Z15.0 E-1.0   ; move X Y to default origin
G1 X280.0 Y280.0 Z10.0 E-2.0   ; move X Y to default origin
M204 P1000 T1000    ; fullspeed
G1 Z0            ; move X Y to default origin
G1 X0 Y0 E0          ; move X Y to default origin

;G4 P10000            ; pause 10 sec


;strokeA3
M204 P1000 T1000    ; fullspeed
G1 F10000           ; set X Y speed
G1 X300.0 Y380.0    ; move X Y to default origin
G1 Z15.5            ; move X Y to default origin
G1 Z15.7            ; move X Y to default origin
G1 Z15.5            ; move X Y to default origin
M204 P10 T10    ; loweringspeed
G1 X290.0 Y360.0 Z15.0 E-1.0   ; move X Y to default origin
G1 X280.0 Y340.0 Z10.0 E-2.0   ; move X Y to default origin
M204 P1000 T1000    ; fullspeed
G1 Z0            ; move X Y to default origin
G1 X0 Y0 E0          ; move X Y to default origin

;G4 P10000            ; pause 10 sec


;strokeA4
M204 P1000 T1000    ; fullspeed
G1 F10000           ; set X Y speed
G1 X300.0 Y580.0    ; move X Y to default origin
G1 Z15.5            ; move X Y to default origin
G1 Z15.7            ; move X Y to default origin
G1 Z15.5            ; move X Y to default origin
M204 P10 T10    ; loweringspeed
G1 X290.0 Y540.0 Z15.0 E-1.0   ; move X Y to default origin
G1 X280.0 Y500.0 Z10.0 E-2.0   ; move X Y to default origin
M204 P1000 T1000    ; fullspeed
G1 Z0            ; move X Y to default origin
G1 X0 Y0 E0          ; move X Y to default origin

;G4 P10000            ; pause 10 sec

;strokeA5
M204 P1000 T1000    ; fullspeed
G1 F10000           ; set X Y speed
G1 X300.0 Y880.0    ; move X Y to default origin
G1 Z15.5            ; move X Y to default origin
G1 Z15.7            ; move X Y to default origin
G1 Z15.5            ; move X Y to default origin
M204 P10 T10    ; loweringspeed
G1 X290.0 Y780.0 Z15.0 E-1.0   ; move X Y to default origin
G1 X280.0 Y680.0 Z10.0 E-2.0   ; move X Y to default origin
M204 P1000 T1000    ; fullspeed
G1 Z0            ; move X Y to default origin
G1 X0 Y0 E0          ; move X Y to default origin

;G4 P10000            ; pause 10 sec

;strokeA6
M204 P1000 T1000    ; fullspeed
G1 F10000           ; set X Y speed
G1 X500.0 Y580.0    ; move X Y to default origin
G1 Z15.5            ; move X Y to default origin
G4 P3000            ; pause 3 sec
G1 Z15.7            ; move X Y to default origin
G1 Z15.5            ; move X Y to default origin
M204 P10 T10    ; loweringspeed
G1 X490.0 Y540.0 Z15.0 E-1.0   ; move X Y to default origin
G1 X480.0 Y500.0 Z10.0 E-2.0   ; move X Y to default origin
M204 P1000 T1000    ; fullspeed
G1 Z0            ; move X Y to default origin
G1 X0 Y0 E0          ; move X Y to default origin

;G4 P10000            ; pause 10 sec

;strokeB1
M204 P1000 T1000    ; fullspeed
G1 F10000           ; set X Y speed
G1 X500.0 Y200.0    ; move X Y to default origin
G1 Z15.5            ; move X Y to default origin
G1 Z15.7            ; move X Y to default origin
G1 Z15.5            ; move X Y to default origin
M204 P10 T10    ; loweringspeed
G1 X490.0 Y195.0 Z15.0 E2.0   ; move X Y to default origin
G1 X480.0 Y190.0 Z14.0 ; move X Y to default origin
G1 Z13.0 E0.0   ; move X Y to default origin
M204 P1000 T1000    ; fullspeed
G1 Z0            ; move X Y to default origin
G1 X0 Y0 E0          ; move X Y to default origin

;G4 P10000            ; pause 10 sec

;strokeB2
M204 P1000 T1000    ; fullspeed
G1 F10000           ; set X Y speed
G1 X500.0 Y300.0    ; move X Y to default origin
G1 Z15.5            ; move X Y to default origin
G1 Z15.7            ; move X Y to default origin
G1 Z15.5            ; move X Y to default origin
M204 P10 T10    ; loweringspeed
G1 X490.0 Y295.0 Z15.0 E2.0   ; move X Y to default origin
G1 X480.0 Y290.0 Z14.0 ; move X Y to default origin
G1 Z13.0 E0.0   ; move X Y to default origin
M204 P1000 T1000    ; fullspeed
G1 Z0            ; move X Y to default origin
G1 X0 Y0 E0          ; move X Y to default origin

;G4 P10000            ; pause 10 sec

;strokeC1
M204 P1000 T1000    ; fullspeed
G1 F10000           ; set X Y speed
G1 X500.0 Y900.0    ; move X Y to default origin
G1 Z13.0            ; move X Y to default origin
M204 P10 T10        ; loweringspeed
G1 E1.57           ; look north
G1 Z15.6            ; go down
G4 P3000            ; pause 3 sec
G1 X500.0 Y800.0 Z15.7 E0    ;move and swing
G1 X500.0 Y700.0 Z15.0 E-1.57 ;move and swing
G1 Z14.0                     ;move X Y to default origin
G1 Z13.0 E0                  ;move X Y to default origin
M204 P1000 T1000    ; fullspeed
G1 Z0            ; move X Y to default origin
G1 X0 Y0 E0          ; move X Y to default origin

;G4 P10000            ; pause 10 sec

;strokeC2
M204 P1000 T1000    ; fullspeed
G1 F10000           ; set X Y speed
G1 X700.0 Y200.0    ; move X Y to default origin
G1 Z13.0            ; move X Y to default origin
M204 P10 T10        ; loweringspeed
G1 Z14.0 E1.57           ; look north
G1 Z15.6            ; go down
G4 P3000            ; pause 3 sec
G1 X700.0 Y190.0 Z15.7 E0    ;move and swing
G1 X700.0 Y180.0 Z15.0 E-1.57 ;move and swing
G1 Z14.0                     ;move X Y to default origin
G1 Z13.0 E0                  ;move X Y to default origin
M204 P1000 T1000    ; fullspeed
G1 Z0            ; move X Y to default origin
G1 X0 Y0 E0          ; move X Y to default origin

;G4 P10000            ; pause 10 sec

;strokeC3
M204 P1000 T1000    ; fullspeed
G1 F10000           ; set X Y speed
G1 X700.0 Y400.0    ; move X Y to default origin
G1 Z13.0            ; move X Y to default origin
M204 P10 T10        ; loweringspeed
G1 Z14.0 E1.57           ; look north
G1 Z15.6            ; go down
G4 P3000            ; pause 3 sec
G1 X700.0 Y390.0 Z15.7 E0    ;move and swing
G1 X700.0 Y380.0 Z15.0 E-1.57 ;move and swing
G1 Z14.0                     ;move X Y to default origin
G1 Z13.0 E0                  ;move X Y to default origin
M204 P1000 T1000    ; fullspeed
G1 Z0            ; move X Y to default origin
G1 X0 Y0 E0          ; move X Y to default origin

;G4 P10000            ; pause 10 sec

;strokeC4
M204 P1000 T1000    ; fullspeed
G1 F10000           ; set X Y speed
G1 X700.0 Y600.0    ; move X Y to default origin
G1 Z13.0            ; move X Y to default origin
M204 P10 T10        ; loweringspeed
G1 Z14.0 E1.57           ; look north
G1 Z15.6            ; go down
G4 P3000            ; pause 3 sec
G1 X700.0 Y590.0 Z15.7 E0    ;move and swing
G1 X700.0 Y580.0 Z15.0 E-1.57 ;move and swing
G1 Z14.0                     ;move X Y to default origin
G1 Z13.0 E0                  ;move X Y to default origin
M204 P1000 T1000    ; fullspeed
G1 Z0            ; move X Y to default origin
G1 X0 Y0 E0          ; move X Y to default origin

;G4 P10000            ; pause 10 sec


;strokeC5
M204 P1000 T1000    ; fullspeed
G1 F10000           ; set X Y speed
G1 X700.0 Y800.0    ; move X Y to default origin
G1 Z13.0            ; move X Y to default origin
M204 P10 T10        ; loweringspeed
G1 Z14.0 E1.57           ; look north
G1 Z15.6            ; go down
G4 P3000            ; pause 3 sec
G1 X700.0 Y790.0 Z15.7 E0    ;move and swing
G1 X700.0 Y780.0 Z15.0 E-1.57 ;move and swing
G1 Z14.0                     ;move X Y to default origin
G1 Z13.0 E0                  ;move X Y to default origin
M204 P1000 T1000    ; fullspeed
G1 Z0            ; move X Y to default origin
G1 X0 Y0 E0          ; move X Y to default origin

;G4 P10000            ; pause 10 sec

;strokeC6
M204 P1000 T1000    ; fullspeed
G1 F10000           ; set X Y speed
G1 X700.0 Y1000.0    ; move X Y to default origin
G1 Z13.0            ; move X Y to default origin
M204 P10 T10        ; loweringspeed
G1 Z14.0 E1.57           ; look north
G1 Z15.6            ; go down
G4 P3000            ; pause 3 sec
G1 X700.0 Y990.0 Z15.7 E0    ;move and swing
G1 X700.0 Y980.0 Z15.0 E-1.57 ;move and swing
G1 Z14.0                     ;move X Y to default origin
G1 Z13.0 E0                  ;move X Y to default origin
M204 P1000 T1000    ; fullspeed
G1 Z0            ; move X Y to default origin
G1 X0 Y0 E0          ; move X Y to default origin

;G4 P10000            ; pause 10 sec


;strokeD1
M204 P1000 T1000    ; fullspeed
G1 F10000           ; set X Y speed
G1 X900.0 Y200.0    ; move X Y to default origin
G1 Z13.0            ; move X Y to default origin
M204 P10 T10        ; loweringspeed
G1 Z14.0 E1.57           ; look north
G1 Z15.6            ; go down
G4 P3000            ; pause 3 sec
G1 X900.0 Y150.0 Z15.7  ;move and swing
G1 X900.0 Y100.0 Z15.0  ;move and swing
G1 Z14.0                     ;move X Y to default origin
G1 Z13.0 E0                  ;move X Y to default origin
M204 P1000 T1000    ; fullspeed
G1 Z0            ; move X Y to default origin
G1 X0 Y0 E0          ; move X Y to default origin

;G4 P10000            ; pause 10 sec

;strokeD2
M204 P1000 T1000    ; fullspeed
G1 F10000           ; set X Y speed
G1 X900.0 Y400.0    ; move X Y to default origin
G1 Z13.0            ; move X Y to default origin
M204 P10 T10        ; loweringspeed
G1 Z14.0 E1.57           ; look north
G1 Z15.6            ; go down
G4 P3000            ; pause 3 sec
G1 X900.0 Y350.0 Z15.7  ;move and swing
G1 X900.0 Y300.0 Z15.9  ;move and swing
G1 Z14.0                     ;move X Y to default origin
G1 Z13.0 E0                  ;move X Y to default origin
M204 P1000 T1000    ; fullspeed
G1 Z0            ; move X Y to default origin
G1 X0 Y0 E0          ; move X Y to default origin

;G4 P10000            ; pause 10 sec


;strokeD3
M204 P1000 T1000    ; fullspeed
G1 F10000           ; set X Y speed
G1 X900.0 Y600.0    ; move X Y to default origin
G1 Z13.0            ; move X Y to default origin
M204 P10 T10        ; loweringspeed
G1 Z14.0 E1.57           ; look north
G1 Z15.7            ; go down
G4 P3000            ; pause 3 sec
G1 X900.0 Y550.0 Z15.9  ;move and swing
G1 X900.0 Y500.0 Z15.7  ;move and swing
G1 Z14.0                     ;move X Y to default origin
G1 Z13.0 E0                  ;move X Y to default origin
M204 P1000 T1000    ; fullspeed
G1 Z0            ; move X Y to default origin
G1 X0 Y0 E0          ; move X Y to default origin

;G4 P10000            ; pause 10 sec

;strokeD3
M204 P1000 T1000    ; fullspeed
G1 F10000           ; set X Y speed
G1 X900.0 Y1000.0    ; move X Y to default origin
G1 Z13.0            ; move X Y to default origin
M204 P10 T10        ; loweringspeed
G1 Z14.0 E1.57           ; look north
G1 Z15.0            ; go down
G4 P3000            ; pause 3 sec
G1 X900.0 Y850.0 Z15.9  ;move and swing
G1 X900.0 Y700.0 Z15.0  ;move and swing
G1 Z14.0                     ;move X Y to default origin
G1 Z13.0 E0                  ;move X Y to default origin
M204 P1000 T1000    ; fullspeed
G1 Z0            ; move X Y to default origin
G1 X0 Y0 E0          ; move X Y to default origin

;G4 P10000            ; pause 10 sec


;strokeA1b
M204 P1000 T1000    ; fullspeed
G1 F10000           ; set X Y speed
G1 X1100.0 Y200.0    ; move X Y to default origin
G1 Z15.5            ; move X Y to default origin
G1 Z15.7            ; move X Y to default origin
G1 Z15.5            ; move X Y to default origin
M204 P10 T10    ; loweringspeed
G1 X1090.0 Y195.0 Z15.0 E-1.0   ; move X Y to default origin
G1 X1080.0 Y190.0 Z10.0 E-2.0   ; move X Y to default origin
M204 P1000 T1000    ; fullspeed
G1 Z0            ; move X Y to default origin
G1 X0 Y0 E0          ; move X Y to default origin


;G4 P10000            ; pause 10 sec


;strokeA2b
M204 P1000 T1000    ; fullspeed
G1 F10000           ; set X Y speed
G1 X1100.0 Y300.0    ; move X Y to default origin
G1 Z15.5            ; move X Y to default origin
G1 Z15.7            ; move X Y to default origin
G1 Z15.5            ; move X Y to default origin
M204 P10 T10    ; loweringspeed
G1 X1090.0 Y290.0 Z15.0 E-1.0   ; move X Y to default origin
G1 X1080.0 Y280.0 Z10.0 E-2.0   ; move X Y to default origin
M204 P1000 T1000    ; fullspeed
G1 Z0            ; move X Y to default origin
G1 X0 Y0 E0          ; move X Y to default origin


;G4 P10000            ; pause 10 sec



;strokeA3b
M204 P1000 T1000    ; fullspeed
G1 F10000           ; set X Y speed
G1 X1100.0 Y380.0    ; move X Y to default origin
G1 Z15.5            ; move X Y to default origin
G1 Z15.7            ; move X Y to default origin
G1 Z15.5            ; move X Y to default origin
M204 P10 T10    ; loweringspeed
G1 X1090.0 Y360.0 Z15.0 E-1.0   ; move X Y to default origin
G1 X1080.0 Y340.0 Z10.0 E-2.0   ; move X Y to default origin
M204 P1000 T1000    ; fullspeed
G1 Z0            ; move X Y to default origin
G1 X0 Y0 E0          ; move X Y to default origin


;G4 P10000            ; pause 10 sec



;strokeA4b
M204 P1000 T1000    ; fullspeed
G1 F10000           ; set X Y speed
G1 X1100.0 Y580.0    ; move X Y to default origin
G1 Z15.5            ; move X Y to default origin
G1 Z15.7            ; move X Y to default origin
G1 Z15.5            ; move X Y to default origin
M204 P10 T10    ; loweringspeed
G1 X1090.0 Y540.0 Z15.0 E-1.0   ; move X Y to default origin
G1 X1080.0 Y500.0 Z10.0 E-2.0   ; move X Y to default origin
M204 P1000 T1000    ; fullspeed
G1 Z0            ; move X Y to default origin
G1 X0 Y0 E0          ; move X Y to default origin


;G4 P10000            ; pause 10 sec



;strokeA5b
M204 P1000 T1000    ; fullspeed
G1 F10000           ; set X Y speed
G1 X1100.0 Y880.0    ; move X Y to default origin
G1 Z15.5            ; move X Y to default origin
G1 Z15.7            ; move X Y to default origin
G1 Z15.5            ; move X Y to default origin
M204 P10 T10    ; loweringspeed
G1 X1090.0 Y780.0 Z15.0 E-1.0   ; move X Y to default origin
G1 X1080.0 Y680.0 Z10.0 E-2.0   ; move X Y to default origin
M204 P1000 T1000    ; fullspeed
G1 Z0            ; move X Y to default origin
G1 X0 Y0 E0          ; move X Y to default origin


