; generated by CloudPainter GCODE Generator - Version 2018.08.11
; code for dd_embellishment_004
; on robot com.cloudpainter.robots.PandoraVOne@15ca7889
; "paintwells":[ "#fefffe" ]


M107                ; ??? 
G21                 ; set units to millimeters
G90                 ; use absolute coordinates
M82                 ; use absolute distances for extrusion
G92 E0.0              ; ??? 
T0                  ;Rotate paintbrush T0, dispensing paint T1  

;Simple sweep of the brush with no movement

;strokeA2AgBa_W
M204 P1000 T1000               ; ACCEL SPEED
M203 E5                        ; MAX ACCEL SPEED ROTATION 
G1 F10000                      ; XY SPEED
G1 X350.0 Y100.0 E0.0          ; START POINT WITH PALETTE KNIFE IN HOME POSITION
G1 Z15.0                        ; LOWER PALETTE BELOW AXIS 
G1 X350.0 Y1000.0 E0.0          ; START POINT WITH PALETTE KNIFE IN HOME POSITION
G1 X350.0 Y100.0 E0.0          ; START POINT WITH PALETTE KNIFE IN HOME POSITION
G1 X350.0 Y1000.0 E0.0          ; START POINT WITH PALETTE KNIFE IN HOME POSITION
G1 X350.0 Y100.0 E0.0          ; START POINT WITH PALETTE KNIFE IN HOME POSITION
G1 X350.0 Y1000.0 E0.0          ; START POINT WITH PALETTE KNIFE IN HOME POSITION
G1 X350.0 Y100.0 E0.0          ; START POINT WITH PALETTE KNIFE IN HOME POSITION
M204 P1000 T1000               ; RETURN TO FULL SPEED
M203 E1000                     ; RETURN ROTATION TO FULL SPEED  
G1 Z0                          ; RETURN Z TO 0
G1 X0 Y0                       ; RETURN X Y TO 0
G4 P10000                      ; PAUSE (REFILL PAINT)
